[
    {
        "name": "name",
        "link": true
    },
    {
        "name": "phoneNumber"
    },
    {
        "name": "subject",
        "notSortable": true
    },
    {
        "name": "checkAttendant",
        "notSortable": true
    }
]